digraph Tree {
node [shape=box, style="filled, rounded", color="black", fontname=helvetica] ;
edge [fontname=helvetica] ;
0 [label=<frequency &le; 20.9236<br/>gini = 0.7335<br/>samples = 23<br/>value = [4, 8, 5, 6]>, fillcolor="#47e5391e"] ;
1 [label=<"tests" &le; 13.5726<br/>gini = 0.4734<br/>samples = 13<br/>value = [0, 8, 5, 0]>, fillcolor="#47e53960"] ;
0 -> 1 [labeldistance=2.5, labelangle=45, headlabel="True"] ;
2 [label=<gini = 0.0<br/>samples = 8<br/>value = [0, 8, 0, 0]>, fillcolor="#47e539ff"] ;
1 -> 2 ;
3 [label=<gini = 0.0<br/>samples = 5<br/>value = [0, 0, 5, 0]>, fillcolor="#399de5ff"] ;
1 -> 3 ;
4 [label=<frequency &le; 55.4866<br/>gini = 0.48<br/>samples = 10<br/>value = [4, 0, 0, 6]>, fillcolor="#d739e555"] ;
0 -> 4 [labeldistance=2.5, labelangle=-45, headlabel="False"] ;
5 [label=<gini = 0.0<br/>samples = 6<br/>value = [0, 0, 0, 6]>, fillcolor="#d739e5ff"] ;
4 -> 5 ;
6 [label=<gini = 0.0<br/>samples = 4<br/>value = [4, 0, 0, 0]>, fillcolor="#e58139ff"] ;
4 -> 6 ;
}